%YAML 1.1
%TAG !u! tag:unity3d.com,2011:
--- !u!74 &7400000
AnimationClip:
  m_ObjectHideFlags: 0
  m_PrefabParentObject: {fileID: 0}
  m_PrefabInternal: {fileID: 0}
  m_Name: Cross Right Sword
  serializedVersion: 4
  m_AnimationType: 1
  m_Compressed: 0
  m_UseHighQualityCurve: 1
  m_RotationCurves:
  - curve:
      serializedVersion: 2
      m_Curve:
      - time: 0
        value: {x: 0, y: 0, z: .0261769518, w: .999657333}
        inSlope: {x: 0, y: 0, z: .471024036, w: -.0141870966}
        outSlope: {x: 0, y: 0, z: .471024036, w: -.0141870966}
        tangentMode: 0
      - time: .0166666675
        value: {x: 0, y: 0, z: .0340273529, w: .999420881}
        inSlope: {x: 0, y: 0, z: .470961213, w: -.0160342436}
        outSlope: {x: 0, y: 0, z: .470961213, w: -.0160342436}
        tangentMode: 0
      - time: .0333333351
        value: {x: 0, y: 0, z: .0418756604, w: .999122858}
        inSlope: {x: 0, y: 0, z: .470820725, w: -.0197321139}
        outSlope: {x: 0, y: 0, z: .470820725, w: -.0197321139}
        tangentMode: 0
      - time: .0500000045
        value: {x: 0, y: 0, z: .0497213788, w: .998763144}
        inSlope: {x: 0, y: 0, z: .470651209, w: -.023431778}
        outSlope: {x: 0, y: 0, z: .470651209, w: -.023431778}
        tangentMode: 1044102076
      - time: .0666666701
        value: {x: 0, y: 0, z: .0575640351, w: .998341799}
        inSlope: {x: 0, y: 0, z: .470452905, w: -.0271260757}
        outSlope: {x: 0, y: 0, z: .470452905, w: -.0271260757}
        tangentMode: 0
      - time: .0833333358
        value: {x: 0, y: 0, z: .0654031411, w: .997858942}
        inSlope: {x: 0, y: 0, z: .470225036, w: -.0308203734}
        outSlope: {x: 0, y: 0, z: .470225036, w: -.0308203734}
        tangentMode: 0
      - time: .100000001
        value: {x: 0, y: 0, z: .0732382014, w: .997314453}
        inSlope: {x: 0, y: 0, z: .469968438, w: -.0345128812}
        outSlope: {x: 0, y: 0, z: .469968438, w: -.0345128812}
        tangentMode: 0
      - time: .116666667
        value: {x: 0, y: 0, z: .0810687542, w: .996708512}
        inSlope: {x: 0, y: 0, z: .469683349, w: -.0382018015}
        outSlope: {x: 0, y: 0, z: .469683349, w: -.0382018015}
        tangentMode: 0
      - time: .13333334
        value: {x: 0, y: 0, z: .0888943151, w: .996041059}
        inSlope: {x: 0, y: 0, z: .469368637, w: -.0418907329}
        outSlope: {x: 0, y: 0, z: .469368637, w: -.0418907329}
        tangentMode: 1054168410
      - time: .150000006
        value: {x: 0, y: 0, z: .0967143774, w: .995312154}
        inSlope: {x: 0, y: 0, z: .469024718, w: -.0455743112}
        outSlope: {x: 0, y: 0, z: .469024718, w: -.0455743112}
        tangentMode: 0
      - time: .166666672
        value: {x: 0, y: 0, z: .104528472, w: .994521916}
        inSlope: {x: 0, y: 0, z: .468652576, w: -.0492560901}
        outSlope: {x: 0, y: 0, z: .468652576, w: -.0492560901}
        tangentMode: 0
      - time: .183333337
        value: {x: 0, y: 0, z: .112336129, w: .993670285}
        inSlope: {x: 0, y: 0, z: .468251586, w: -.052937869}
        outSlope: {x: 0, y: 0, z: .468251586, w: -.052937869}
        tangentMode: 0
      - time: .200000003
        value: {x: 0, y: 0, z: .120136857, w: .99275732}
        inSlope: {x: 0, y: 0, z: .467821091, w: -.0566124953}
        outSlope: {x: 0, y: 0, z: .467821091, w: -.0566124953}
        tangentMode: 0
      - time: .216666669
        value: {x: 0, y: 0, z: .127930164, w: .991783202}
        inSlope: {x: 0, y: 0, z: .467361987, w: -.0602853335}
        outSlope: {x: 0, y: 0, z: .467361987, w: -.0602853335}
        tangentMode: 1059481191
      - time: .233333334
        value: {x: 0, y: 0, z: .135715589, w: .990747809}
        inSlope: {x: 0, y: 0, z: .466874272, w: -.0639545992}
        outSlope: {x: 0, y: 0, z: .466874272, w: -.0639545992}
        tangentMode: 0
      - time: .25
        value: {x: 0, y: 0, z: .143492639, w: .989651382}
        inSlope: {x: 0, y: 0, z: .466357291, w: -.0676184595}
        outSlope: {x: 0, y: 0, z: .466357291, w: -.0676184595}
        tangentMode: 0
      - time: .266666681
        value: {x: 0, y: 0, z: .151260838, w: .98849386}
        inSlope: {x: 0, y: 0, z: .4658117, w: -.0712787509}
        outSlope: {x: 0, y: 0, z: .4658117, w: -.0712787509}
        tangentMode: 0
      - time: .283333361
        value: {x: 0, y: 0, z: .159019709, w: .987275422}
        inSlope: {x: 0, y: 0, z: .465238154, w: -.0749354959}
        outSlope: {x: 0, y: 0, z: .465238154, w: -.0749354959}
        tangentMode: 0
      - time: .300000042
        value: {x: 0, y: 0, z: .166768789, w: .985996008}
        inSlope: {x: 0, y: 0, z: .464634657, w: -.0785868689}
        outSlope: {x: 0, y: 0, z: .464634657, w: -.0785868689}
        tangentMode: 1063395871
      - time: .316666722
        value: {x: 0, y: 0, z: .174507543, w: .984655857}
        inSlope: {x: 0, y: 0, z: .464002997, w: -.0822328851}
        outSlope: {x: 0, y: 0, z: .464002997, w: -.0822328851}
        tangentMode: 0
      - time: .333333403
        value: {x: 0, y: 0, z: .182235569, w: .98325491}
        inSlope: {x: 0, y: 0, z: .463344067, w: -.0858771056}
        outSlope: {x: 0, y: 0, z: .463344067, w: -.0858771056}
        tangentMode: 0
      - time: .350000083
        value: {x: 0, y: 0, z: .189952359, w: .981793284}
        inSlope: {x: 0, y: 0, z: .462654293, w: -.0895123929}
        outSlope: {x: 0, y: 0, z: .462654293, w: -.0895123929}
        tangentMode: 0
      - time: .366666764
        value: {x: 0, y: 0, z: .197657391, w: .980271161}
        inSlope: {x: 0, y: 0, z: .461936802, w: -.0931423157}
        outSlope: {x: 0, y: 0, z: .461936802, w: -.0931423157}
        tangentMode: 1020686604
      - time: .383333445
        value: {x: 0, y: 0, z: .205350265, w: .978688538}
        inSlope: {x: 0, y: 0, z: .461191595, w: -.0967686549}
        outSlope: {x: 0, y: 0, z: .461191595, w: -.0967686549}
        tangentMode: 1028443342
      - time: .400000125
        value: {x: 0, y: 0, z: .213030457, w: .977045536}
        inSlope: {x: 0, y: 0, z: .46041733, w: -.100387849}
        outSlope: {x: 0, y: 0, z: .46041733, w: -.100387849}
        tangentMode: 0
      - time: .416666806
        value: {x: 0, y: 0, z: .220697522, w: .975342274}
        inSlope: {x: 0, y: 0, z: .459614903, w: -.103999883}
        outSlope: {x: 0, y: 0, z: .459614903, w: -.103999883}
        tangentMode: 1047584684
      - time: .433333486
        value: {x: 0, y: 0, z: .228350967, w: .97357887}
        inSlope: {x: 0, y: 0, z: .458783418, w: -.10760656}
        outSlope: {x: 0, y: 0, z: .458783418, w: -.10760656}
        tangentMode: 1047572845
      - time: .450000167
        value: {x: 0, y: 0, z: .235990316, w: .971755385}
        inSlope: {x: 0, y: 0, z: .457924664, w: -.111206084}
        outSlope: {x: 0, y: 0, z: .457924664, w: -.111206084}
        tangentMode: 1034291040
      - time: .466666847
        value: {x: 0, y: 0, z: .243615136, w: .969871998}
        inSlope: {x: 0, y: 0, z: .4570373, w: -.114798449}
        outSlope: {x: 0, y: 0, z: .4570373, w: -.114798449}
        tangentMode: 1049694482
      - time: .483333528
        value: {x: 0, y: 0, z: .251224905, w: .967928767}
        inSlope: {x: 0, y: 0, z: .45612061, w: -.118386209}
        outSlope: {x: 0, y: 0, z: .45612061, w: -.118386209}
        tangentMode: 0
      - time: .5
        value: {x: 0, y: 0, z: .258819073, w: .965925813}
        inSlope: {x: 0, y: 0, z: .455655426, w: -.12017867}
        outSlope: {x: 0, y: 0, z: .455655426, w: -.12017867}
        tangentMode: 1047510806
      m_PreInfinity: 2
      m_PostInfinity: 2
    path: 
  m_CompressedRotationCurves: []
  m_PositionCurves: []
  m_ScaleCurves: []
  m_FloatCurves:
  - curve:
      serializedVersion: 2
      m_Curve:
      - time: 0
        value: 65
        inSlope: -130
        outSlope: -130
        tangentMode: 10
      - time: .5
        value: 0
        inSlope: -130
        outSlope: -130
        tangentMode: 10
      m_PreInfinity: 2
      m_PostInfinity: 2
    attribute: m_AnchoredPosition.x
    path: 
    classID: 224
    script: {fileID: 0}
  m_PPtrCurves: []
  m_SampleRate: 60
  m_WrapMode: 0
  m_Bounds:
    m_Center: {x: 0, y: 0, z: 0}
    m_Extent: {x: 0, y: 0, z: 0}
  m_ClipBindingConstant:
    genericBindings: []
    pptrCurveMapping: []
  m_AnimationClipSettings:
    serializedVersion: 2
    m_StartTime: 0
    m_StopTime: .5
    m_OrientationOffsetY: 0
    m_Level: 0
    m_CycleOffset: 0
    m_LoopTime: 0
    m_LoopBlend: 0
    m_LoopBlendOrientation: 0
    m_LoopBlendPositionY: 0
    m_LoopBlendPositionXZ: 0
    m_KeepOriginalOrientation: 0
    m_KeepOriginalPositionY: 1
    m_KeepOriginalPositionXZ: 0
    m_HeightFromFeet: 0
    m_Mirror: 0
  m_EditorCurves:
  - curve:
      serializedVersion: 2
      m_Curve:
      - time: 0
        value: 65
        inSlope: -130
        outSlope: -130
        tangentMode: 10
      - time: .5
        value: 0
        inSlope: -130
        outSlope: -130
        tangentMode: 10
      m_PreInfinity: 2
      m_PostInfinity: 2
    attribute: m_AnchoredPosition.x
    path: 
    classID: 224
    script: {fileID: 0}
  - curve:
      serializedVersion: 2
      m_Curve:
      - time: 0
        value: 0
        inSlope: 0
        outSlope: 0
        tangentMode: 0
      - time: .0166666675
        value: 0
        inSlope: 0
        outSlope: 0
        tangentMode: 0
      - time: .0333333351
        value: 0
        inSlope: 0
        outSlope: 0
        tangentMode: 0
      - time: .0500000045
        value: 0
        inSlope: 0
        outSlope: 0
        tangentMode: 0
      - time: .0666666701
        value: 0
        inSlope: 0
        outSlope: 0
        tangentMode: 0
      - time: .0833333358
        value: 0
        inSlope: 0
        outSlope: 0
        tangentMode: 0
      - time: .100000001
        value: 0
        inSlope: 0
        outSlope: 0
        tangentMode: 0
      - time: .116666667
        value: 0
        inSlope: 0
        outSlope: 0
        tangentMode: 0
      - time: .13333334
        value: 0
        inSlope: 0
        outSlope: 0
        tangentMode: 0
      - time: .150000006
        value: 0
        inSlope: 0
        outSlope: 0
        tangentMode: 0
      - time: .166666672
        value: 0
        inSlope: 0
        outSlope: 0
        tangentMode: 0
      - time: .183333337
        value: 0
        inSlope: 0
        outSlope: 0
        tangentMode: 0
      - time: .200000003
        value: 0
        inSlope: 0
        outSlope: 0
        tangentMode: 0
      - time: .216666669
        value: 0
        inSlope: 0
        outSlope: 0
        tangentMode: 0
      - time: .233333334
        value: 0
        inSlope: 0
        outSlope: 0
        tangentMode: 0
      - time: .25
        value: 0
        inSlope: 0
        outSlope: 0
        tangentMode: 0
      - time: .266666681
        value: 0
        inSlope: 0
        outSlope: 0
        tangentMode: 0
      - time: .283333361
        value: 0
        inSlope: 0
        outSlope: 0
        tangentMode: 0
      - time: .300000042
        value: 0
        inSlope: 0
        outSlope: 0
        tangentMode: 0
      - time: .316666722
        value: 0
        inSlope: 0
        outSlope: 0
        tangentMode: 0
      - time: .333333403
        value: 0
        inSlope: 0
        outSlope: 0
        tangentMode: 0
      - time: .350000083
        value: 0
        inSlope: 0
        outSlope: 0
        tangentMode: 0
      - time: .366666764
        value: 0
        inSlope: 0
        outSlope: 0
        tangentMode: 0
      - time: .383333445
        value: 0
        inSlope: 0
        outSlope: 0
        tangentMode: 0
      - time: .400000125
        value: 0
        inSlope: 0
        outSlope: 0
        tangentMode: 0
      - time: .416666806
        value: 0
        inSlope: 0
        outSlope: 0
        tangentMode: 0
      - time: .433333486
        value: 0
        inSlope: 0
        outSlope: 0
        tangentMode: 0
      - time: .450000167
        value: 0
        inSlope: 0
        outSlope: 0
        tangentMode: 0
      - time: .466666847
        value: 0
        inSlope: 0
        outSlope: 0
        tangentMode: 0
      - time: .483333528
        value: 0
        inSlope: 0
        outSlope: 0
        tangentMode: 0
      - time: .5
        value: 0
        inSlope: 0
        outSlope: 0
        tangentMode: 0
      m_PreInfinity: 2
      m_PostInfinity: 2
    attribute: m_LocalRotation.x
    path: 
    classID: 224
    script: {fileID: 0}
  - curve:
      serializedVersion: 2
      m_Curve:
      - time: 0
        value: 0
        inSlope: 0
        outSlope: 0
        tangentMode: 0
      - time: .0166666675
        value: 0
        inSlope: 0
        outSlope: 0
        tangentMode: 0
      - time: .0333333351
        value: 0
        inSlope: 0
        outSlope: 0
        tangentMode: 0
      - time: .0500000045
        value: 0
        inSlope: 0
        outSlope: 0
        tangentMode: 0
      - time: .0666666701
        value: 0
        inSlope: 0
        outSlope: 0
        tangentMode: 0
      - time: .0833333358
        value: 0
        inSlope: 0
        outSlope: 0
        tangentMode: 0
      - time: .100000001
        value: 0
        inSlope: 0
        outSlope: 0
        tangentMode: 0
      - time: .116666667
        value: 0
        inSlope: 0
        outSlope: 0
        tangentMode: 0
      - time: .13333334
        value: 0
        inSlope: 0
        outSlope: 0
        tangentMode: 0
      - time: .150000006
        value: 0
        inSlope: 0
        outSlope: 0
        tangentMode: 0
      - time: .166666672
        value: 0
        inSlope: 0
        outSlope: 0
        tangentMode: 0
      - time: .183333337
        value: 0
        inSlope: 0
        outSlope: 0
        tangentMode: 0
      - time: .200000003
        value: 0
        inSlope: 0
        outSlope: 0
        tangentMode: 0
      - time: .216666669
        value: 0
        inSlope: 0
        outSlope: 0
        tangentMode: 0
      - time: .233333334
        value: 0
        inSlope: 0
        outSlope: 0
        tangentMode: 0
      - time: .25
        value: 0
        inSlope: 0
        outSlope: 0
        tangentMode: 0
      - time: .266666681
        value: 0
        inSlope: 0
        outSlope: 0
        tangentMode: 0
      - time: .283333361
        value: 0
        inSlope: 0
        outSlope: 0
        tangentMode: 0
      - time: .300000042
        value: 0
        inSlope: 0
        outSlope: 0
        tangentMode: 0
      - time: .316666722
        value: 0
        inSlope: 0
        outSlope: 0
        tangentMode: 0
      - time: .333333403
        value: 0
        inSlope: 0
        outSlope: 0
        tangentMode: 0
      - time: .350000083
        value: 0
        inSlope: 0
        outSlope: 0
        tangentMode: 0
      - time: .366666764
        value: 0
        inSlope: 0
        outSlope: 0
        tangentMode: 0
      - time: .383333445
        value: 0
        inSlope: 0
        outSlope: 0
        tangentMode: 0
      - time: .400000125
        value: 0
        inSlope: 0
        outSlope: 0
        tangentMode: 0
      - time: .416666806
        value: 0
        inSlope: 0
        outSlope: 0
        tangentMode: 0
      - time: .433333486
        value: 0
        inSlope: 0
        outSlope: 0
        tangentMode: 0
      - time: .450000167
        value: 0
        inSlope: 0
        outSlope: 0
        tangentMode: 0
      - time: .466666847
        value: 0
        inSlope: 0
        outSlope: 0
        tangentMode: 0
      - time: .483333528
        value: 0
        inSlope: 0
        outSlope: 0
        tangentMode: 0
      - time: .5
        value: 0
        inSlope: 0
        outSlope: 0
        tangentMode: 0
      m_PreInfinity: 2
      m_PostInfinity: 2
    attribute: m_LocalRotation.y
    path: 
    classID: 224
    script: {fileID: 0}
  - curve:
      serializedVersion: 2
      m_Curve:
      - time: 0
        value: .0261769518
        inSlope: .471024036
        outSlope: .471024036
        tangentMode: 0
      - time: .0166666675
        value: .0340273529
        inSlope: .470961213
        outSlope: .470961213
        tangentMode: 0
      - time: .0333333351
        value: .0418756604
        inSlope: .470820725
        outSlope: .470820725
        tangentMode: 0
      - time: .0500000045
        value: .0497213788
        inSlope: .470651209
        outSlope: .470651209
        tangentMode: 0
      - time: .0666666701
        value: .0575640351
        inSlope: .470452905
        outSlope: .470452905
        tangentMode: 0
      - time: .0833333358
        value: .0654031411
        inSlope: .470225036
        outSlope: .470225036
        tangentMode: 0
      - time: .100000001
        value: .0732382014
        inSlope: .469968438
        outSlope: .469968438
        tangentMode: 0
      - time: .116666667
        value: .0810687542
        inSlope: .469683349
        outSlope: .469683349
        tangentMode: 0
      - time: .13333334
        value: .0888943151
        inSlope: .469368637
        outSlope: .469368637
        tangentMode: 0
      - time: .150000006
        value: .0967143774
        inSlope: .469024718
        outSlope: .469024718
        tangentMode: 0
      - time: .166666672
        value: .104528472
        inSlope: .468652576
        outSlope: .468652576
        tangentMode: 0
      - time: .183333337
        value: .112336129
        inSlope: .468251586
        outSlope: .468251586
        tangentMode: 0
      - time: .200000003
        value: .120136857
        inSlope: .467821091
        outSlope: .467821091
        tangentMode: 0
      - time: .216666669
        value: .127930164
        inSlope: .467361987
        outSlope: .467361987
        tangentMode: 0
      - time: .233333334
        value: .135715589
        inSlope: .466874272
        outSlope: .466874272
        tangentMode: 0
      - time: .25
        value: .143492639
        inSlope: .466357291
        outSlope: .466357291
        tangentMode: 0
      - time: .266666681
        value: .151260838
        inSlope: .4658117
        outSlope: .4658117
        tangentMode: 0
      - time: .283333361
        value: .159019709
        inSlope: .465238154
        outSlope: .465238154
        tangentMode: 0
      - time: .300000042
        value: .166768789
        inSlope: .464634657
        outSlope: .464634657
        tangentMode: 0
      - time: .316666722
        value: .174507543
        inSlope: .464002997
        outSlope: .464002997
        tangentMode: 0
      - time: .333333403
        value: .182235569
        inSlope: .463344067
        outSlope: .463344067
        tangentMode: 0
      - time: .350000083
        value: .189952359
        inSlope: .462654293
        outSlope: .462654293
        tangentMode: 0
      - time: .366666764
        value: .197657391
        inSlope: .461936802
        outSlope: .461936802
        tangentMode: 0
      - time: .383333445
        value: .205350265
        inSlope: .461191595
        outSlope: .461191595
        tangentMode: 0
      - time: .400000125
        value: .213030457
        inSlope: .46041733
        outSlope: .46041733
        tangentMode: 0
      - time: .416666806
        value: .220697522
        inSlope: .459614903
        outSlope: .459614903
        tangentMode: 0
      - time: .433333486
        value: .228350967
        inSlope: .458783418
        outSlope: .458783418
        tangentMode: 0
      - time: .450000167
        value: .235990316
        inSlope: .457924664
        outSlope: .457924664
        tangentMode: 0
      - time: .466666847
        value: .243615136
        inSlope: .4570373
        outSlope: .4570373
        tangentMode: 0
      - time: .483333528
        value: .251224905
        inSlope: .45612061
        outSlope: .45612061
        tangentMode: 0
      - time: .5
        value: .258819073
        inSlope: .455655426
        outSlope: .455655426
        tangentMode: 0
      m_PreInfinity: 2
      m_PostInfinity: 2
    attribute: m_LocalRotation.z
    path: 
    classID: 224
    script: {fileID: 0}
  - curve:
      serializedVersion: 2
      m_Curve:
      - time: 0
        value: .999657333
        inSlope: -.0141870966
        outSlope: -.0141870966
        tangentMode: 0
      - time: .0166666675
        value: .999420881
        inSlope: -.0160342436
        outSlope: -.0160342436
        tangentMode: 0
      - time: .0333333351
        value: .999122858
        inSlope: -.0197321139
        outSlope: -.0197321139
        tangentMode: 0
      - time: .0500000045
        value: .998763144
        inSlope: -.023431778
        outSlope: -.023431778
        tangentMode: 0
      - time: .0666666701
        value: .998341799
        inSlope: -.0271260757
        outSlope: -.0271260757
        tangentMode: 0
      - time: .0833333358
        value: .997858942
        inSlope: -.0308203734
        outSlope: -.0308203734
        tangentMode: 0
      - time: .100000001
        value: .997314453
        inSlope: -.0345128812
        outSlope: -.0345128812
        tangentMode: 0
      - time: .116666667
        value: .996708512
        inSlope: -.0382018015
        outSlope: -.0382018015
        tangentMode: 0
      - time: .13333334
        value: .996041059
        inSlope: -.0418907329
        outSlope: -.0418907329
        tangentMode: 0
      - time: .150000006
        value: .995312154
        inSlope: -.0455743112
        outSlope: -.0455743112
        tangentMode: 0
      - time: .166666672
        value: .994521916
        inSlope: -.0492560901
        outSlope: -.0492560901
        tangentMode: 0
      - time: .183333337
        value: .993670285
        inSlope: -.052937869
        outSlope: -.052937869
        tangentMode: 0
      - time: .200000003
        value: .99275732
        inSlope: -.0566124953
        outSlope: -.0566124953
        tangentMode: 0
      - time: .216666669
        value: .991783202
        inSlope: -.0602853335
        outSlope: -.0602853335
        tangentMode: 0
      - time: .233333334
        value: .990747809
        inSlope: -.0639545992
        outSlope: -.0639545992
        tangentMode: 0
      - time: .25
        value: .989651382
        inSlope: -.0676184595
        outSlope: -.0676184595
        tangentMode: 0
      - time: .266666681
        value: .98849386
        inSlope: -.0712787509
        outSlope: -.0712787509
        tangentMode: 0
      - time: .283333361
        value: .987275422
        inSlope: -.0749354959
        outSlope: -.0749354959
        tangentMode: 0
      - time: .300000042
        value: .985996008
        inSlope: -.0785868689
        outSlope: -.0785868689
        tangentMode: 0
      - time: .316666722
        value: .984655857
        inSlope: -.0822328851
        outSlope: -.0822328851
        tangentMode: 0
      - time: .333333403
        value: .98325491
        inSlope: -.0858771056
        outSlope: -.0858771056
        tangentMode: 0
      - time: .350000083
        value: .981793284
        inSlope: -.0895123929
        outSlope: -.0895123929
        tangentMode: 0
      - time: .366666764
        value: .980271161
        inSlope: -.0931423157
        outSlope: -.0931423157
        tangentMode: 0
      - time: .383333445
        value: .978688538
        inSlope: -.0967686549
        outSlope: -.0967686549
        tangentMode: 0
      - time: .400000125
        value: .977045536
        inSlope: -.100387849
        outSlope: -.100387849
        tangentMode: 0
      - time: .416666806
        value: .975342274
        inSlope: -.103999883
        outSlope: -.103999883
        tangentMode: 0
      - time: .433333486
        value: .97357887
        inSlope: -.10760656
        outSlope: -.10760656
        tangentMode: 0
      - time: .450000167
        value: .971755385
        inSlope: -.111206084
        outSlope: -.111206084
        tangentMode: 0
      - time: .466666847
        value: .969871998
        inSlope: -.114798449
        outSlope: -.114798449
        tangentMode: 0
      - time: .483333528
        value: .967928767
        inSlope: -.118386209
        outSlope: -.118386209
        tangentMode: 0
      - time: .5
        value: .965925813
        inSlope: -.12017867
        outSlope: -.12017867
        tangentMode: 0
      m_PreInfinity: 2
      m_PostInfinity: 2
    attribute: m_LocalRotation.w
    path: 
    classID: 224
    script: {fileID: 0}
  m_EulerEditorCurves:
  - curve:
      serializedVersion: 2
      m_Curve:
      - time: 0
        value: 0
        inSlope: 0
        outSlope: 0
        tangentMode: 10
      - time: .5
        value: 0
        inSlope: 0
        outSlope: 0
        tangentMode: 10
      m_PreInfinity: 2
      m_PostInfinity: 2
    attribute: localEulerAnglesBaked.x
    path: 
    classID: 224
    script: {fileID: 0}
  - curve:
      serializedVersion: 2
      m_Curve:
      - time: 0
        value: 0
        inSlope: 0
        outSlope: 0
        tangentMode: 10
      - time: .5
        value: 0
        inSlope: 0
        outSlope: 0
        tangentMode: 10
      m_PreInfinity: 2
      m_PostInfinity: 2
    attribute: localEulerAnglesBaked.y
    path: 
    classID: 224
    script: {fileID: 0}
  - curve:
      serializedVersion: 2
      m_Curve:
      - time: 0
        value: 3
        inSlope: 54
        outSlope: 54
        tangentMode: 10
      - time: .5
        value: 30
        inSlope: 54
        outSlope: 54
        tangentMode: 10
      m_PreInfinity: 2
      m_PostInfinity: 2
    attribute: localEulerAnglesBaked.z
    path: 
    classID: 224
    script: {fileID: 0}
  m_Events: []
